Containers:
  [+] MainContainer:
   |            ID: 0x0000000000000000
   |        Bounds: IsValid=false, Min=(X=0.000 Y=0.000 Z=0.000), Max=(X=0.000 Y=0.000 Z=0.000)
   |     Transform: 0.000000,0.000000,0.000000|0.000000,0.000000,-0.000000|1.000000,1.000000,1.000000
   |     Container: /Game/ThirdPerson/Maps/ThirdPersonMap
   |  ActorDescs:
   |      - Guid:00352D3E41632E8C2AAA96AF56560D52 Class:Ingredient Name:Cylinder_C_UAID_B42E99D1D417F14901_1923110696 SpatiallyLoaded:true Bounds:IsValid=true, Min=(X=1260.000 Y=2830.000 Z=530.000), Max=(X=1360.000 Y=2930.000 Z=630.000) RuntimeGrid:None EditorOnly:false LevelBoundsRelevant:true HLODRelevant:false FolderPath:None FolderGuid:00000000000000000000000000000000 Parent:00000000000000000000000000000000
   |      - Guid:0F71A8C049FFF1AEF2EB1EA2AFB37770 Class:RecipeMachine Name:MyRecipeMachine_C_UAID_B42E99D1D417F14901_1468459663 SpatiallyLoaded:true Bounds:IsValid=true, Min=(X=1208.711 Y=1167.490 Z=10.000), Max=(X=1510.000 Y=1352.510 Z=160.085) RuntimeGrid:None EditorOnly:false LevelBoundsRelevant:true HLODRelevant:false FolderPath:None FolderGuid:00000000000000000000000000000000 Parent:00000000000000000000000000000000
   |      - Guid:1034341D4D1F9FFCFE73CAB16BD3CA83 Class:Ingredient Name:Cube_C_UAID_B42E99D1D417F14901_1867656684 SpatiallyLoaded:true Bounds:IsValid=true, Min=(X=1261.600 Y=2231.600 Z=541.600), Max=(X=1338.400 Y=2308.400 Z=618.400) RuntimeGrid:None EditorOnly:false LevelBoundsRelevant:true HLODRelevant:false FolderPath:None FolderGuid:00000000000000000000000000000000 Parent:00000000000000000000000000000000
   |      - Guid:1294CADB43BEBD9D0EF465A305A976C4 Class:Ingredient Name:Cylinder_C_UAID_B42E99D1D417F14901_1496855669 SpatiallyLoaded:true Bounds:IsValid=true, Min=(X=1260.000 Y=1540.000 Z=230.000), Max=(X=1360.000 Y=1640.000 Z=330.000) RuntimeGrid:None EditorOnly:false LevelBoundsRelevant:true HLODRelevant:false FolderPath:None FolderGuid:00000000000000000000000000000000 Parent:00000000000000000000000000000000
   |      - Guid:1331020C4A65E98D290353BCA5499E66 Class:RecipeMachine Name:MyRecipeMachine_C_UAID_B42E99D1D417F14901_1471734665 SpatiallyLoaded:true Bounds:IsValid=true, Min=(X=1208.711 Y=1847.490 Z=10.000), Max=(X=1510.000 Y=2032.510 Z=160.085) RuntimeGrid:None EditorOnly:false LevelBoundsRelevant:true HLODRelevant:false FolderPath:None FolderGuid:00000000000000000000000000000000 Parent:00000000000000000000000000000000
   |      - Guid:147D149344037F7C0C270DA008EB1852 Class:Ingredient Name:Cube_C_UAID_B42E99D1D417F14901_1932281698 SpatiallyLoaded:true Bounds:IsValid=true, Min=(X=1261.600 Y=2831.600 Z=831.600), Max=(X=1338.400 Y=2908.400 Z=908.400) RuntimeGrid:None EditorOnly:false LevelBoundsRelevant:true HLODRelevant:false FolderPath:None FolderGuid:00000000000000000000000000000000 Parent:00000000000000000000000000000000
   |      - Guid:174DF71143EA367D14F3838C26CC06DF Class:SkyLight Name:SkyLight_0 SpatiallyLoaded:false Bounds:IsValid=true, Min=(X=0.000 Y=0.000 Z=690.000), Max=(X=0.000 Y=0.000 Z=690.000) RuntimeGrid:None EditorOnly:false LevelBoundsRelevant:false HLODRelevant:false FolderPath:Lighting FolderGuid:08A10B054C95868C663DE39EE4343813 Parent:00000000000000000000000000000000
   |      - Guid:1B835513448B5F19A5B2FF8541523743 Class:Ingredient Name:Cube_C_UAID_B42E99D1D417F14901_1899786690 SpatiallyLoaded:true Bounds:IsValid=true, Min=(X=1261.600 Y=2491.600 Z=481.600), Max=(X=1338.400 Y=2568.400 Z=558.400) RuntimeGrid:None EditorOnly:false LevelBoundsRelevant:true HLODRelevant:false FolderPath:None FolderGuid:00000000000000000000000000000000 Parent:00000000000000000000000000000000
   |      - Guid:268C98EA4EF54A275975D69E8B46591A Class:Ingredient Name:Cube_C_UAID_B42E99D1D417EF4901_1809878313 SpatiallyLoaded:true Bounds:IsValid=true, Min=(X=1261.600 Y=911.600 Z=241.600), Max=(X=1338.400 Y=988.400 Z=318.400) RuntimeGrid:None EditorOnly:false LevelBoundsRelevant:true HLODRelevant:false FolderPath:None FolderGuid:00000000000000000000000000000000 Parent:00000000000000000000000000000000
   |      - Guid:278C23FE42558907E1B6EA9112E1AE9C Class:Ingredient Name:BP_Sphere_C_UAID_B42E99D1D417F14901_1528242674 SpatiallyLoaded:true Bounds:IsValid=true, Min=(X=1232.000 Y=1882.000 Z=552.000), Max=(X=1328.000 Y=1978.000 Z=648.000) RuntimeGrid:None EditorOnly:false LevelBoundsRelevant:true HLODRelevant:false FolderPath:None FolderGuid:00000000000000000000000000000000 Parent:00000000000000000000000000000000
   |      - Guid:27EB14164D5E46E4D3C98D94C6A08BD9 Class:RecipeMachine Name:MyRecipeMachine_C_UAID_B42E99D1D417F14901_1840003679 SpatiallyLoaded:true Bounds:IsValid=true, Min=(X=1208.711 Y=3097.490 Z=10.000), Max=(X=1510.000 Y=3282.510 Z=160.085) RuntimeGrid:None EditorOnly:false LevelBoundsRelevant:true HLODRelevant:false FolderPath:None FolderGuid:00000000000000000000000000000000 Parent:00000000000000000000000000000000
   |      - Guid:2EC885A4400FBACE45D73AB9A73A9E3E Class:Ingredient Name:Cube_C_UAID_B42E99D1D417F14901_1932281699 SpatiallyLoaded:true Bounds:IsValid=true, Min=(X=1261.600 Y=2831.600 Z=951.600), Max=(X=1338.400 Y=2908.400 Z=1028.400) RuntimeGrid:None EditorOnly:false LevelBoundsRelevant:true HLODRelevant:false FolderPath:None FolderGuid:00000000000000000000000000000000 Parent:00000000000000000000000000000000
   |      - Guid:326273BA4565884FBCA531AE11CCEA41 Class:Ingredient Name:Cube_C_UAID_B42E99D1D417F14901_1893949688 SpatiallyLoaded:true Bounds:IsValid=true, Min=(X=1261.600 Y=2491.600 Z=231.600), Max=(X=1338.400 Y=2568.400 Z=308.400) RuntimeGrid:None EditorOnly:false LevelBoundsRelevant:true HLODRelevant:false FolderPath:None FolderGuid:00000000000000000000000000000000 Parent:00000000000000000000000000000000
   |      - Guid:33CBCFC6434699BE5F95C0969C3A3B95 Class:Ingredient Name:BP_Sphere_C_UAID_B42E99D1D417BC4801_1970542282 SpatiallyLoaded:true Bounds:IsValid=true, Min=(X=1202.000 Y=332.000 Z=272.000), Max=(X=1298.000 Y=428.000 Z=368.000) RuntimeGrid:None EditorOnly:false LevelBoundsRelevant:true HLODRelevant:false FolderPath:None FolderGuid:00000000000000000000000000000000 Parent:00000000000000000000000000000000
   |      - Guid:34A344DD460FA591E15799A0E9C199CD Class:RecipeMachine Name:MyRecipeMachine_C_UAID_B42E99D1D417F14901_1819931676 SpatiallyLoaded:true Bounds:IsValid=true, Min=(X=1208.711 Y=2167.490 Z=10.000), Max=(X=1510.000 Y=2352.510 Z=160.085) RuntimeGrid:None EditorOnly:false LevelBoundsRelevant:true HLODRelevant:false FolderPath:None FolderGuid:00000000000000000000000000000000 Parent:00000000000000000000000000000000
   |      - Guid:4084DCFB4AA9797E28D5C88013444430 Class:Ingredient Name:BP_Sphere_C_UAID_B42E99D1D417F14901_1877626687 SpatiallyLoaded:true Bounds:IsValid=true, Min=(X=1232.000 Y=2222.000 Z=912.000), Max=(X=1328.000 Y=2318.000 Z=1008.000) RuntimeGrid:None EditorOnly:false LevelBoundsRelevant:true HLODRelevant:false FolderPath:None FolderGuid:00000000000000000000000000000000 Parent:00000000000000000000000000000000
   |      - Guid:4275CBC240F70B8CA418C7887E613D14 Class:Ingredient Name:Cube_C_UAID_B42E99D1D417F14901_1870017685 SpatiallyLoaded:true Bounds:IsValid=true, Min=(X=1261.600 Y=2231.600 Z=661.600), Max=(X=1338.400 Y=2308.400 Z=738.400) RuntimeGrid:None EditorOnly:false LevelBoundsRelevant:true HLODRelevant:false FolderPath:None FolderGuid:00000000000000000000000000000000 Parent:00000000000000000000000000000000
   |      - Guid:46AA0D024474C63B187919842AB43CD4 Class:RecipeMachine Name:MyRecipeMachine_C_UAID_B42E99D1D417C94801_1377537569 SpatiallyLoaded:true Bounds:IsValid=true, Min=(X=1208.711 Y=247.490 Z=10.000), Max=(X=1510.000 Y=432.510 Z=160.085) RuntimeGrid:None EditorOnly:false LevelBoundsRelevant:true HLODRelevant:false FolderPath:None FolderGuid:00000000000000000000000000000000 Parent:00000000000000000000000000000000
   |      - Guid:47D6B13B46F12239904B5285E514A614 Class:Ingredient Name:Cylinder_C_UAID_B42E99D1D417F14901_1982844708 SpatiallyLoaded:true Bounds:IsValid=true, Min=(X=1260.000 Y=3130.000 Z=1210.000), Max=(X=1360.000 Y=3230.000 Z=1310.000) RuntimeGrid:None EditorOnly:false LevelBoundsRelevant:true HLODRelevant:false FolderPath:None FolderGuid:00000000000000000000000000000000 Parent:00000000000000000000000000000000
   |      - Guid:489B524E40DEA0F924BF92AE55D9C119 Class:Ingredient Name:Cylinder_C_UAID_B42E99D1D417F14901_1854616681 SpatiallyLoaded:true Bounds:IsValid=true, Min=(X=1260.000 Y=2220.000 Z=390.000), Max=(X=1360.000 Y=2320.000 Z=490.000) RuntimeGrid:None EditorOnly:false LevelBoundsRelevant:true HLODRelevant:false FolderPath:None FolderGuid:00000000000000000000000000000000 Parent:00000000000000000000000000000000
   |      - Guid:49AE6D5B44DC6BBDFF2D1DA7FD19F453 Class:Ingredient Name:Cylinder_C_UAID_B42E99D1D417F14901_1503132670 SpatiallyLoaded:true Bounds:IsValid=true, Min=(X=1260.000 Y=1540.000 Z=380.000), Max=(X=1360.000 Y=1640.000 Z=480.000) RuntimeGrid:None EditorOnly:false LevelBoundsRelevant:true HLODRelevant:false FolderPath:None FolderGuid:00000000000000000000000000000000 Parent:00000000000000000000000000000000
   |      - Guid:4E70516F4EA14F651F28ECB7DAC6B13C Class:RecipeMachine Name:MyRecipeMachine_C_UAID_B42E99D1D417F14901_1821860677 SpatiallyLoaded:true Bounds:IsValid=true, Min=(X=1208.711 Y=2477.490 Z=10.000), Max=(X=1510.000 Y=2662.510 Z=160.085) RuntimeGrid:None EditorOnly:false LevelBoundsRelevant:true HLODRelevant:false FolderPath:None FolderGuid:00000000000000000000000000000000 Parent:00000000000000000000000000000000
   |      - Guid:4F7B735A44E12B4B031927A9FC21C460 Class:VolumetricCloud Name:VolumetricCloud_1 SpatiallyLoaded:false Bounds:IsValid=true, Min=(X=0.000 Y=0.000 Z=820.000), Max=(X=0.000 Y=0.000 Z=820.000) RuntimeGrid:None EditorOnly:false LevelBoundsRelevant:false HLODRelevant:false FolderPath:Lighting FolderGuid:08A10B054C95868C663DE39EE4343813 Parent:00000000000000000000000000000000
   |      - Guid:51BD1C3041F411EEFDA8FCB0A630C915 Class:Ingredient Name:Cylinder_C_UAID_B42E99D1D417F14901_1520287672 SpatiallyLoaded:true Bounds:IsValid=true, Min=(X=1260.000 Y=1890.000 Z=230.000), Max=(X=1360.000 Y=1990.000 Z=330.000) RuntimeGrid:None EditorOnly:false LevelBoundsRelevant:true HLODRelevant:false FolderPath:None FolderGuid:00000000000000000000000000000000 Parent:00000000000000000000000000000000
   |      - Guid:57B411CC4E42BFF77FF547B8CDEC0AE2 Class:Ingredient Name:BP_Sphere_C_UAID_B42E99D1D417F14901_1951209702 SpatiallyLoaded:true Bounds:IsValid=true, Min=(X=1232.000 Y=3112.000 Z=362.000), Max=(X=1328.000 Y=3208.000 Z=458.000) RuntimeGrid:None EditorOnly:false LevelBoundsRelevant:true HLODRelevant:false FolderPath:None FolderGuid:00000000000000000000000000000000 Parent:00000000000000000000000000000000
   |      - Guid:57E35B064F325F10920ECA8CAD280C90 Class:Ingredient Name:Cube_C_UAID_B42E99D1D417F14901_1897252689 SpatiallyLoaded:true Bounds:IsValid=true, Min=(X=1261.600 Y=2491.600 Z=351.600), Max=(X=1338.400 Y=2568.400 Z=428.400) RuntimeGrid:None EditorOnly:false LevelBoundsRelevant:true HLODRelevant:false FolderPath:None FolderGuid:00000000000000000000000000000000 Parent:00000000000000000000000000000000
   |      - Guid:5845B2DB406EC44B2A57C58CEFC14EFB Class:Ingredient Name:BP_Sphere_C_UAID_B42E99D1D417F14901_1872196686 SpatiallyLoaded:true Bounds:IsValid=true, Min=(X=1232.000 Y=2222.000 Z=782.000), Max=(X=1328.000 Y=2318.000 Z=878.000) RuntimeGrid:None EditorOnly:false LevelBoundsRelevant:true HLODRelevant:false FolderPath:None FolderGuid:00000000000000000000000000000000 Parent:00000000000000000000000000000000
   |      - Guid:58F9B5254172592044890F97D6715424 Class:Ingredient Name:BP_Sphere_C_UAID_B42E99D1D417F14901_1908897693 SpatiallyLoaded:true Bounds:IsValid=true, Min=(X=1232.000 Y=2482.000 Z=882.000), Max=(X=1328.000 Y=2578.000 Z=978.000) RuntimeGrid:None EditorOnly:false LevelBoundsRelevant:true HLODRelevant:false FolderPath:None FolderGuid:00000000000000000000000000000000 Parent:00000000000000000000000000000000
   |      - Guid:5C7C5C40408F48C386D06CA03AB130C2 Class:StaticMeshActor Name:StaticMeshActor_UAID_A4AE111137DC5EFB00_1594956423 SpatiallyLoaded:true Bounds:IsValid=true, Min=(X=-1638400.000 Y=-1638400.000 Z=-1638400.000), Max=(X=1638400.000 Y=1638400.000 Z=1638400.000) RuntimeGrid:None EditorOnly:false LevelBoundsRelevant:true HLODRelevant:true FolderPath:Lighting FolderGuid:08A10B054C95868C663DE39EE4343813 Parent:00000000000000000000000000000000
   |      - Guid:5E23170D4BF3CEE2D2B6F4BE35DA9C01 Class:Ingredient Name:Cylinder_C_UAID_B42E99D1D417F14901_1982842706 SpatiallyLoaded:true Bounds:IsValid=true, Min=(X=1260.000 Y=3130.000 Z=910.000), Max=(X=1360.000 Y=3230.000 Z=1010.000) RuntimeGrid:None EditorOnly:false LevelBoundsRelevant:true HLODRelevant:false FolderPath:None FolderGuid:00000000000000000000000000000000 Parent:00000000000000000000000000000000
   |      - Guid:60F96CCA4FF75515E3A0848EC85D8964 Class:Ingredient Name:Cylinder_C_UAID_B42E99D1D417F14901_1504662671 SpatiallyLoaded:true Bounds:IsValid=true, Min=(X=1260.000 Y=1540.000 Z=530.000), Max=(X=1360.000 Y=1640.000 Z=630.000) RuntimeGrid:None EditorOnly:false LevelBoundsRelevant:true HLODRelevant:false FolderPath:None FolderGuid:00000000000000000000000000000000 Parent:00000000000000000000000000000000
   |      - Guid:664A87DA48B6EE38C0ACEA9AEDBA4BA0 Class:TextRenderActor Name:TextRenderActor_1 SpatiallyLoaded:true Bounds:IsValid=true, Min=(X=-0.100 Y=1100.000 Z=65.013), Max=(X=-0.100 Y=2392.308 Z=215.013) RuntimeGrid:None EditorOnly:false LevelBoundsRelevant:true HLODRelevant:false FolderPath:None FolderGuid:00000000000000000000000000000000 Parent:00000000000000000000000000000000
   |      - Guid:6C232DAF4A11DFA8F0595DB2CA10190A Class:Ingredient Name:Cube_C_UAID_B42E99D1D417F14901_1932282700 SpatiallyLoaded:true Bounds:IsValid=true, Min=(X=1261.600 Y=2831.600 Z=1081.600), Max=(X=1338.400 Y=2908.400 Z=1158.400) RuntimeGrid:None EditorOnly:false LevelBoundsRelevant:true HLODRelevant:false FolderPath:None FolderGuid:00000000000000000000000000000000 Parent:00000000000000000000000000000000
   |      - Guid:788903924598EC8109F9709A8AB41C0D Class:WorldDataLayers Name:WorldDataLayers SpatiallyLoaded:false Bounds:IsValid=true, Min=(X=0.000 Y=0.000 Z=0.000), Max=(X=0.000 Y=0.000 Z=0.000) RuntimeGrid:None EditorOnly:false LevelBoundsRelevant:false HLODRelevant:false FolderPath:None FolderGuid:00000000000000000000000000000000 Parent:00000000000000000000000000000000
   |      - Guid:7AA870984693C5A1FCED73819F354445 Class:Ingredient Name:Cylinder_C_UAID_B42E99D1D417F14901_1982843707 SpatiallyLoaded:true Bounds:IsValid=true, Min=(X=1260.000 Y=3130.000 Z=1060.000), Max=(X=1360.000 Y=3230.000 Z=1160.000) RuntimeGrid:None EditorOnly:false LevelBoundsRelevant:true HLODRelevant:false FolderPath:None FolderGuid:00000000000000000000000000000000 Parent:00000000000000000000000000000000
   |      - Guid:7CB50362455C8EE0926D419A261D296D Class:Ingredient Name:BP_Sphere_C_UAID_B42E99D1D417EF4901_1812878314 SpatiallyLoaded:true Bounds:IsValid=true, Min=(X=1232.000 Y=912.000 Z=532.000), Max=(X=1328.000 Y=1008.000 Z=628.000) RuntimeGrid:None EditorOnly:false LevelBoundsRelevant:true HLODRelevant:false FolderPath:None FolderGuid:00000000000000000000000000000000 Parent:00000000000000000000000000000000
   |      - Guid:811186F348B7B58F570BD0BFAEE4C0D8 Class:Ingredient Name:Cylinder_C_UAID_B42E99D1D417F14901_1927031697 SpatiallyLoaded:true Bounds:IsValid=true, Min=(X=1260.000 Y=2830.000 Z=680.000), Max=(X=1360.000 Y=2930.000 Z=780.000) RuntimeGrid:None EditorOnly:false LevelBoundsRelevant:true HLODRelevant:false FolderPath:None FolderGuid:00000000000000000000000000000000 Parent:00000000000000000000000000000000
   |      - Guid:839F922248AC5D3122B3F989F9A3DB8E Class:Ingredient Name:Cube_C_UAID_B42E99D1D417F14901_1963328705 SpatiallyLoaded:true Bounds:IsValid=true, Min=(X=1261.600 Y=3141.600 Z=791.600), Max=(X=1338.400 Y=3218.400 Z=868.400) RuntimeGrid:None EditorOnly:false LevelBoundsRelevant:true HLODRelevant:false FolderPath:None FolderGuid:00000000000000000000000000000000 Parent:00000000000000000000000000000000
   |      - Guid:876899E5415DC30508A7E38056045697 Class:Ingredient Name:Cube_C_UAID_B42E99D1D417F14901_1476785666 SpatiallyLoaded:true Bounds:IsValid=true, Min=(X=1261.600 Y=1221.600 Z=241.600), Max=(X=1338.400 Y=1298.400 Z=318.400) RuntimeGrid:None EditorOnly:false LevelBoundsRelevant:true HLODRelevant:false FolderPath:None FolderGuid:00000000000000000000000000000000 Parent:00000000000000000000000000000000
   |      - Guid:8DAF6E45485B69839F14A2A8193E9875 Class:Ingredient Name:BP_Sphere_C_UAID_B42E99D1D417E74901_1695247904 SpatiallyLoaded:true Bounds:IsValid=true, Min=(X=1232.000 Y=612.000 Z=392.000), Max=(X=1328.000 Y=708.000 Z=488.000) RuntimeGrid:None EditorOnly:false LevelBoundsRelevant:true HLODRelevant:false FolderPath:None FolderGuid:00000000000000000000000000000000 Parent:00000000000000000000000000000000
   |      - Guid:9016A0FB403535D018C4FD8A5651147D Class:Ingredient Name:Cylinder_C_UAID_B42E99D1D417F14901_1923109695 SpatiallyLoaded:true Bounds:IsValid=true, Min=(X=1260.000 Y=2830.000 Z=380.000), Max=(X=1360.000 Y=2930.000 Z=480.000) RuntimeGrid:None EditorOnly:false LevelBoundsRelevant:true HLODRelevant:false FolderPath:None FolderGuid:00000000000000000000000000000000 Parent:00000000000000000000000000000000
   |      - Guid:9141DF994EADB0B1AD9EDD9C91415511 Class:Ingredient Name:BP_Sphere_C_UAID_B42E99D1D417F14901_1531214675 SpatiallyLoaded:true Bounds:IsValid=true, Min=(X=1232.000 Y=1882.000 Z=702.000), Max=(X=1328.000 Y=1978.000 Z=798.000) RuntimeGrid:None EditorOnly:false LevelBoundsRelevant:true HLODRelevant:false FolderPath:None FolderGuid:00000000000000000000000000000000 Parent:00000000000000000000000000000000
   |      - Guid:9C17CA3442FA0DC17486BAB65CC28446 Class:Ingredient Name:BP_Sphere_C_UAID_B42E99D1D417F14901_1951209703 SpatiallyLoaded:true Bounds:IsValid=true, Min=(X=1232.000 Y=3112.000 Z=502.000), Max=(X=1328.000 Y=3208.000 Z=598.000) RuntimeGrid:None EditorOnly:false LevelBoundsRelevant:true HLODRelevant:false FolderPath:None FolderGuid:00000000000000000000000000000000 Parent:00000000000000000000000000000000
   |      - Guid:9DB9FB2C48F2FF6C5087D2BE96FA96C2 Class:Ingredient Name:Cube_C_UAID_B42E99D1D417E74901_1700162905 SpatiallyLoaded:true Bounds:IsValid=true, Min=(X=1261.600 Y=611.600 Z=241.600), Max=(X=1338.400 Y=688.400 Z=318.400) RuntimeGrid:None EditorOnly:false LevelBoundsRelevant:true HLODRelevant:false FolderPath:None FolderGuid:00000000000000000000000000000000 Parent:00000000000000000000000000000000
   |      - Guid:9FFE6665469AE829D82050A8B1F67178 Class:DirectionalLight Name:DirectionalLight_1 SpatiallyLoaded:false Bounds:IsValid=true, Min=(X=-1048576.000 Y=-1048576.000 Z=-1048576.000), Max=(X=1048576.000 Y=1048576.000 Z=1048576.000) RuntimeGrid:None EditorOnly:false LevelBoundsRelevant:false HLODRelevant:false FolderPath:Lighting FolderGuid:08A10B054C95868C663DE39EE4343813 Parent:00000000000000000000000000000000
   |      - Guid:A85A7AD046A0462D176E6889992C1216 Class:PostProcessVolume Name:PostProcessVolume_0 SpatiallyLoaded:false Bounds:IsValid=true, Min=(X=0.000 Y=0.000 Z=400.000), Max=(X=200.000 Y=200.000 Z=600.000) RuntimeGrid:None EditorOnly:false LevelBoundsRelevant:false HLODRelevant:false FolderPath:Lighting FolderGuid:08A10B054C95868C663DE39EE4343813 Parent:00000000000000000000000000000000
   |      - Guid:AB5B67CE40111D5A48057D9BD0DE6491 Class:Ingredient Name:BP_Sphere_C_UAID_B42E99D1D417F14901_1902210691 SpatiallyLoaded:true Bounds:IsValid=true, Min=(X=1232.000 Y=2482.000 Z=602.000), Max=(X=1328.000 Y=2578.000 Z=698.000) RuntimeGrid:None EditorOnly:false LevelBoundsRelevant:true HLODRelevant:false FolderPath:None FolderGuid:00000000000000000000000000000000 Parent:00000000000000000000000000000000
   |      - Guid:AD3F82E748CC31ECCD1527A704F2E02B Class:Ingredient Name:BP_Sphere_C_UAID_B42E99D1D417F14901_1907208692 SpatiallyLoaded:true Bounds:IsValid=true, Min=(X=1232.000 Y=2482.000 Z=742.000), Max=(X=1328.000 Y=2578.000 Z=838.000) RuntimeGrid:None EditorOnly:false LevelBoundsRelevant:true HLODRelevant:false FolderPath:None FolderGuid:00000000000000000000000000000000 Parent:00000000000000000000000000000000
   |      - Guid:B23C247D4E34A96052E563A19E79FA75 Class:ExponentialHeightFog Name:ExponentialHeightFog_1 SpatiallyLoaded:false Bounds:IsValid=true, Min=(X=-5600.000 Y=-50.000 Z=-6850.000), Max=(X=-5600.000 Y=-50.000 Z=-6850.000) RuntimeGrid:None EditorOnly:false LevelBoundsRelevant:false HLODRelevant:false FolderPath:Lighting FolderGuid:08A10B054C95868C663DE39EE4343813 Parent:00000000000000000000000000000000
   |      - Guid:B252967F4CE4CC20F25954BCFCA25CAB Class:RecipeMachine Name:MyRecipeMachine_C_UAID_B42E99D1D417F14901_1823443678 SpatiallyLoaded:true Bounds:IsValid=true, Min=(X=1208.711 Y=2787.490 Z=10.000), Max=(X=1510.000 Y=2972.510 Z=160.085) RuntimeGrid:None EditorOnly:false LevelBoundsRelevant:true HLODRelevant:false FolderPath:None FolderGuid:00000000000000000000000000000000 Parent:00000000000000000000000000000000
   |      - Guid:BB6C415C4560BD6CC9BA66A8850ADB1E Class:RecipeMachine Name:MyRecipeMachine_C_UAID_B42E99D1D417F14901_1470279664 SpatiallyLoaded:true Bounds:IsValid=true, Min=(X=1208.711 Y=1507.490 Z=10.000), Max=(X=1510.000 Y=1692.510 Z=160.085) RuntimeGrid:None EditorOnly:false LevelBoundsRelevant:true HLODRelevant:false FolderPath:None FolderGuid:00000000000000000000000000000000 Parent:00000000000000000000000000000000
   |      - Guid:BD25B8F34455BD4737BB838A023E97CB Class:Ingredient Name:BP_Sphere_C_UAID_B42E99D1D417F14901_1956904704 SpatiallyLoaded:true Bounds:IsValid=true, Min=(X=1232.000 Y=3112.000 Z=652.000), Max=(X=1328.000 Y=3208.000 Z=748.000) RuntimeGrid:None EditorOnly:false LevelBoundsRelevant:true HLODRelevant:false FolderPath:None FolderGuid:00000000000000000000000000000000 Parent:00000000000000000000000000000000
   |      - Guid:BD430F5245E33ECC56F7628FBABC5D84 Class:StaticMeshActor Name:StaticMeshActor_33 SpatiallyLoaded:true Bounds:IsValid=true, Min=(X=0.000 Y=0.000 Z=-50.000), Max=(X=3000.000 Y=3500.000 Z=0.000) RuntimeGrid:None EditorOnly:false LevelBoundsRelevant:true HLODRelevant:true FolderPath:Playground FolderGuid:8CD33C9A4E75AD59B95486AC740693D6 Parent:00000000000000000000000000000000
   |      - Guid:C06CC7CA480E1DD847B549BE58BF0DAB Class:RecipeMachine Name:MyRecipeMachine_C_UAID_B42E99D1D417E74901_1692577903 SpatiallyLoaded:true Bounds:IsValid=true, Min=(X=1208.711 Y=547.490 Z=10.000), Max=(X=1510.000 Y=732.510 Z=160.085) RuntimeGrid:None EditorOnly:false LevelBoundsRelevant:true HLODRelevant:false FolderPath:None FolderGuid:00000000000000000000000000000000 Parent:00000000000000000000000000000000
   |      - Guid:C2B826F44113A4F519AAA9A9BBFD02F2 Class:Ingredient Name:Cylinder_C_UAID_B42E99D1D417F14901_1851683680 SpatiallyLoaded:true Bounds:IsValid=true, Min=(X=1260.000 Y=2220.000 Z=230.000), Max=(X=1360.000 Y=2320.000 Z=330.000) RuntimeGrid:None EditorOnly:false LevelBoundsRelevant:true HLODRelevant:false FolderPath:None FolderGuid:00000000000000000000000000000000 Parent:00000000000000000000000000000000
   |      - Guid:C66BCAFC4D968A2D611291B7A260DDF8 Class:Ingredient Name:Cube_C_UAID_B42E99D1D417F14901_1479245667 SpatiallyLoaded:true Bounds:IsValid=true, Min=(X=1261.600 Y=1221.600 Z=361.600), Max=(X=1338.400 Y=1298.400 Z=438.400) RuntimeGrid:None EditorOnly:false LevelBoundsRelevant:true HLODRelevant:false FolderPath:None FolderGuid:00000000000000000000000000000000 Parent:00000000000000000000000000000000
   |      - Guid:C726A3284B806D4C379405885740B688 Class:PlayerStart Name:PlayerStart_0 SpatiallyLoaded:false Bounds:IsValid=true, Min=(X=860.000 Y=1070.000 Z=0.013), Max=(X=940.000 Y=1150.000 Z=184.013) RuntimeGrid:None EditorOnly:false LevelBoundsRelevant:true HLODRelevant:false FolderPath:None FolderGuid:00000000000000000000000000000000 Parent:00000000000000000000000000000000
   |      - Guid:C768943D43B1D4FCC4C0F098EBF7CAC9 Class:StaticMeshActor Name:StaticMeshActor_36 SpatiallyLoaded:true Bounds:IsValid=true, Min=(X=0.000 Y=0.000 Z=0.000), Max=(X=3000.000 Y=100.000 Z=400.000) RuntimeGrid:None EditorOnly:false LevelBoundsRelevant:true HLODRelevant:true FolderPath:Playground FolderGuid:8CD33C9A4E75AD59B95486AC740693D6 Parent:00000000000000000000000000000000
   |      - Guid:CB3B556C4223FF558BC37E80977B666D Class:Ingredient Name:Cylinder_C_UAID_B42E99D1D417F14901_1923109694 SpatiallyLoaded:true Bounds:IsValid=true, Min=(X=1260.000 Y=2830.000 Z=230.000), Max=(X=1360.000 Y=2930.000 Z=330.000) RuntimeGrid:None EditorOnly:false LevelBoundsRelevant:true HLODRelevant:false FolderPath:None FolderGuid:00000000000000000000000000000000 Parent:00000000000000000000000000000000
   |      - Guid:DA4D517244B5AACBAF7A39A727AD35E0 Class:RecipeMachine Name:MyRecipeMachine_C_UAID_B42E99D1D417EC4901_2129402783 SpatiallyLoaded:true Bounds:IsValid=true, Min=(X=1208.711 Y=867.490 Z=10.000), Max=(X=1510.000 Y=1052.510 Z=160.085) RuntimeGrid:None EditorOnly:false LevelBoundsRelevant:true HLODRelevant:false FolderPath:None FolderGuid:00000000000000000000000000000000 Parent:00000000000000000000000000000000
   |      - Guid:DCFAA58B435B9398EB26BA8D18434252 Class:Ingredient Name:BP_Sphere_C_UAID_B42E99D1D417F14901_1951208701 SpatiallyLoaded:true Bounds:IsValid=true, Min=(X=1232.000 Y=3112.000 Z=222.000), Max=(X=1328.000 Y=3208.000 Z=318.000) RuntimeGrid:None EditorOnly:false LevelBoundsRelevant:true HLODRelevant:false FolderPath:None FolderGuid:00000000000000000000000000000000 Parent:00000000000000000000000000000000
   |      - Guid:E2CCB6C14600C749929BBA87FF0305D7 Class:Ingredient Name:Cylinder_C_UAID_B42E99D1D417F14901_1489020668 SpatiallyLoaded:true Bounds:IsValid=true, Min=(X=1260.000 Y=1210.000 Z=490.000), Max=(X=1360.000 Y=1310.000 Z=590.000) RuntimeGrid:None EditorOnly:false LevelBoundsRelevant:true HLODRelevant:false FolderPath:None FolderGuid:00000000000000000000000000000000 Parent:00000000000000000000000000000000
   |      - Guid:E3E298BD42BF1302694782891CACD462 Class:Ingredient Name:BP_Sphere_C_UAID_B42E99D1D417EF4901_1809877312 SpatiallyLoaded:true Bounds:IsValid=true, Min=(X=1232.000 Y=912.000 Z=392.000), Max=(X=1328.000 Y=1008.000 Z=488.000) RuntimeGrid:None EditorOnly:false LevelBoundsRelevant:true HLODRelevant:false FolderPath:None FolderGuid:00000000000000000000000000000000 Parent:00000000000000000000000000000000
   |      - Guid:E7C88B004DFFF4BE08155AB223A0EF2C Class:SkyAtmosphere Name:SkyAtmosphere_1 SpatiallyLoaded:false Bounds:IsValid=true, Min=(X=0.000 Y=0.000 Z=1020.000), Max=(X=0.000 Y=0.000 Z=1020.000) RuntimeGrid:None EditorOnly:false LevelBoundsRelevant:false HLODRelevant:false FolderPath:Lighting FolderGuid:08A10B054C95868C663DE39EE4343813 Parent:00000000000000000000000000000000
   |      - Guid:ECF7DFF54DE28214A01D249B1B1CA773 Class:StaticMeshActor Name:StaticMeshActor_42 SpatiallyLoaded:true Bounds:IsValid=true, Min=(X=-0.000 Y=100.000 Z=0.000), Max=(X=100.000 Y=3400.000 Z=400.000) RuntimeGrid:None EditorOnly:false LevelBoundsRelevant:true HLODRelevant:true FolderPath:Playground FolderGuid:8CD33C9A4E75AD59B95486AC740693D6 Parent:00000000000000000000000000000000
   |      - Guid:EEA7E07A405712D8241BEE81BC9C6035 Class:Ingredient Name:Cube_C_UAID_B42E99D1D417F14901_1522577673 SpatiallyLoaded:true Bounds:IsValid=true, Min=(X=1261.600 Y=1901.600 Z=411.600), Max=(X=1338.400 Y=1978.400 Z=488.400) RuntimeGrid:None EditorOnly:false LevelBoundsRelevant:true HLODRelevant:false FolderPath:None FolderGuid:00000000000000000000000000000000 Parent:00000000000000000000000000000000
   |      - Guid:F6974391454BE3281D0A9AAB775EBFF6 Class:StaticMeshActor Name:StaticMeshActor_43 SpatiallyLoaded:true Bounds:IsValid=true, Min=(X=2900.000 Y=100.000 Z=0.000), Max=(X=3000.000 Y=3400.000 Z=400.000) RuntimeGrid:None EditorOnly:false LevelBoundsRelevant:true HLODRelevant:true FolderPath:Playground FolderGuid:8CD33C9A4E75AD59B95486AC740693D6 Parent:00000000000000000000000000000000
   |      - Guid:FC2659D1462E0C2787253D85D4D3D619 Class:StaticMeshActor Name:StaticMeshActor_37 SpatiallyLoaded:true Bounds:IsValid=true, Min=(X=0.000 Y=3400.000 Z=0.000), Max=(X=3000.000 Y=3500.000 Z=400.000) RuntimeGrid:None EditorOnly:false LevelBoundsRelevant:true HLODRelevant:true FolderPath:Playground FolderGuid:8CD33C9A4E75AD59B95486AC740693D6 Parent:00000000000000000000000000000000
